{
  "AllowDemolishAfterServerRestart": false,
  "AllowRotateAfterServerRestart": false,
  "ClanCanDemolish": false,
  "ClanCanRotate": false,
  "DemolishTime": 3600.0,
  "FriendsCanDemolish": false,
  "FriendsCanRotate": false,
  "MustOwnToDemolish": false,
  "MustOwnToRotate": false,
  "RepairDamageCooldown": 8.0,
  "RotateTime": 3600.0
}